\relax 
\providecommand\hyper@newdestlabel[2]{}
\catcode `"\active 
\providecommand\HyperFirstAtBeginDocument{\AtBeginDocument}
\HyperFirstAtBeginDocument{\ifx\hyper@anchor\@undefined
\global\let\oldcontentsline\contentsline
\gdef\contentsline#1#2#3#4{\oldcontentsline{#1}{#2}{#3}}
\global\let\oldnewlabel\newlabel
\gdef\newlabel#1#2{\newlabelxx{#1}#2}
\gdef\newlabelxx#1#2#3#4#5#6{\oldnewlabel{#1}{{#2}{#3}}}
\AtEndDocument{\ifx\hyper@anchor\@undefined
\let\contentsline\oldcontentsline
\let\newlabel\oldnewlabel
\fi}
\fi}
\global\let\hyper@last\relax 
\gdef\HyperFirstAtBeginDocument#1{#1}
\providecommand\HyField@AuxAddToFields[1]{}
\providecommand\HyField@AuxAddToCoFields[2]{}
\babel@aux{russian}{}
\citation{Voron}
\citation{Speech and Language Processing}
\citation{Bishop}
\citation{word2vec}
\citation{emd}
\citation{lstm}
\@writefile{toc}{\contentsline {chapter}{\IeC {\CYRV }\IeC {\cyrv }\IeC {\cyre }\IeC {\cyrd }\IeC {\cyre }\IeC {\cyrn }\IeC {\cyri }\IeC {\cyre }}{3}{chapter*.2}}
\@writefile{toc}{\contentsline {chapter}{\numberline {1}\IeC {\CYRZ }\IeC {\cyra }\IeC {\cyrd }\IeC {\cyra }\IeC {\cyrch }\IeC {\cyra } \IeC {\cyrp }\IeC {\cyro }\IeC {\cyri }\IeC {\cyrs }\IeC {\cyrk }\IeC {\cyra } \IeC {\cyrs }\IeC {\cyrh }\IeC {\cyro }\IeC {\cyrzh }\IeC {\cyri }\IeC {\cyrh } \IeC {\cyrp }\IeC {\cyro } \IeC {\cyrt }\IeC {\cyre }\IeC {\cyrm }\IeC {\cyra }\IeC {\cyrt }\IeC {\cyri }\IeC {\cyrk }\IeC {\cyre } \IeC {\cyrp }\IeC {\cyrr }\IeC {\cyro }\IeC {\cyre }\IeC {\cyrk }\IeC {\cyrt }\IeC {\cyro }\IeC {\cyrv }}{4}{chapter.1}}
\@writefile{lof}{\addvspace {10\p@ }}
\@writefile{lot}{\addvspace {10\p@ }}
\newlabel{chapter:1}{{1}{4}{Задача поиска схожих по тематике проектов}{chapter.1}{}}
\@writefile{toc}{\contentsline {section}{\numberline {1.1}\IeC {\CYRF }\IeC {\cyro }\IeC {\cyrr }\IeC {\cyrm }\IeC {\cyru }\IeC {\cyrl }\IeC {\cyri }\IeC {\cyrr }\IeC {\cyro }\IeC {\cyrv }\IeC {\cyrk }\IeC {\cyra } \IeC {\cyrz }\IeC {\cyra }\IeC {\cyrd }\IeC {\cyra }\IeC {\cyrch }\IeC {\cyri }}{4}{section.1.1}}
\@writefile{toc}{\contentsline {section}{\numberline {1.2}\IeC {\CYRO }\IeC {\cyrp }\IeC {\cyri }\IeC {\cyrs }\IeC {\cyra }\IeC {\cyrn }\IeC {\cyri }\IeC {\cyre } \IeC {\cyro }\IeC {\cyrb }\IeC {\cyru }\IeC {\cyrch }\IeC {\cyra }\IeC {\cyryu }\IeC {\cyrshch }\IeC {\cyre }\IeC {\cyrishrt } \IeC {\cyrv }\IeC {\cyrery }\IeC {\cyrb }\IeC {\cyro }\IeC {\cyrr }\IeC {\cyrk }\IeC {\cyri } \IeC {\cyrd }\IeC {\cyrl }\IeC {\cyrya } \IeC {\cyrr }\IeC {\cyra }\IeC {\cyrz }\IeC {\cyrm }\IeC {\cyre }\IeC {\cyrt }\IeC {\cyrk }\IeC {\cyri } \IeC {\cyrp }\IeC {\cyrr }\IeC {\cyro }\IeC {\cyre }\IeC {\cyrk }\IeC {\cyrt }\IeC {\cyro }\IeC {\cyrv }}{4}{section.1.2}}
\@writefile{lot}{\contentsline {table}{\numberline {1.1}{\ignorespaces \IeC {\CYRS }\IeC {\cyrt }\IeC {\cyra }\IeC {\cyrt }\IeC {\cyri }\IeC {\cyrs }\IeC {\cyrt }\IeC {\cyri }\IeC {\cyrk }\IeC {\cyra } \IeC {\cyrd }\IeC {\cyra }\IeC {\cyrn }\IeC {\cyrn }\IeC {\cyrery }\IeC {\cyrh } \IeC {\cyrv } \IeC {\cyro }\IeC {\cyrb }\IeC {\cyru }\IeC {\cyrch }\IeC {\cyra }\IeC {\cyryu }\IeC {\cyrshch }\IeC {\cyre }\IeC {\cyrishrt } \IeC {\cyrv }\IeC {\cyrery }\IeC {\cyrb }\IeC {\cyro }\IeC {\cyrr }\IeC {\cyrk }\IeC {\cyre }}}{5}{table.1.1}}
\@writefile{toc}{\contentsline {section}{\numberline {1.3}Long short-term memory}{5}{section.1.3}}
\@writefile{lof}{\contentsline {figure}{\numberline {1.1}{\ignorespaces \IeC {\CYRA }\IeC {\cyrr }\IeC {\cyrh }\IeC {\cyri }\IeC {\cyrt }\IeC {\cyre }\IeC {\cyrk }\IeC {\cyrt }\IeC {\cyru }\IeC {\cyrr }\IeC {\cyra } LSTM \IeC {\cyrs }\IeC {\cyre }\IeC {\cyrt }\IeC {\cyri }.}}{5}{figure.1.1}}
\newlabel{ris:lstm}{{1.1}{5}{Архитектура LSTM сети}{figure.1.1}{}}
\citation{bptt}
\@writefile{toc}{\contentsline {section}{\numberline {1.4}Earth Moving Distance}{6}{section.1.4}}
\@writefile{toc}{\contentsline {section}{\numberline {1.5}\IeC {\CYRP }\IeC {\cyro }\IeC {\cyri }\IeC {\cyrs }\IeC {\cyrk } \IeC {\cyrs }\IeC {\cyrh }\IeC {\cyro }\IeC {\cyrzh }\IeC {\cyri }\IeC {\cyrh } \IeC {\cyrp }\IeC {\cyro } \IeC {\cyrt }\IeC {\cyre }\IeC {\cyrm }\IeC {\cyra }\IeC {\cyrt }\IeC {\cyri }\IeC {\cyrk }\IeC {\cyre } \IeC {\cyrp }\IeC {\cyrr }\IeC {\cyro }\IeC {\cyre }\IeC {\cyrk }\IeC {\cyrt }\IeC {\cyro }\IeC {\cyrv }}{8}{section.1.5}}
\@writefile{lot}{\contentsline {table}{\numberline {1.2}{\ignorespaces \IeC {\CYRP }\IeC {\cyrr }\IeC {\cyri }\IeC {\cyrm }\IeC {\cyre }\IeC {\cyrr } \IeC {\cyrr }\IeC {\cyra }\IeC {\cyrs }\IeC {\cyrs }\IeC {\cyrt }\IeC {\cyro }\IeC {\cyrya }\IeC {\cyrn }\IeC {\cyri }\IeC {\cyrya } WMD \IeC {\cyrm }\IeC {\cyre }\IeC {\cyrzh }\IeC {\cyrd }\IeC {\cyru } fos}}{8}{table.1.2}}
\bibcite{word2vec}{1}
\bibcite{emd}{2}
\bibcite{lstm}{3}
\bibcite{bptt}{4}
\bibcite{skip-gram}{5}
\bibcite{GloVe}{6}
\bibcite{fastText}{7}
\bibcite{Speech and Language Processing}{8}
\bibcite{Harris}{9}
\bibcite{PCA}{10}
\bibcite{SIF}{11}
\bibcite{Backpropagation}{12}
\bibcite{Bishop}{13}
\bibcite{Example1}{14}
\bibcite{Example2}{15}
\bibcite{Adagrad}{16}
\bibcite{Voron}{17}
\bibcite{Tree}{18}
\bibcite{Kolmogorov-Fomin}{19}
\@writefile{toc}{\contentsline {chapter}{\IeC {\CYRS }\IeC {\cyrp }\IeC {\cyri }\IeC {\cyrs }\IeC {\cyro }\IeC {\cyrk } \IeC {\cyri }\IeC {\cyrs }\IeC {\cyrp }\IeC {\cyro }\IeC {\cyrl }\IeC {\cyrsftsn }\IeC {\cyrz }\IeC {\cyru }\IeC {\cyre }\IeC {\cyrm }\IeC {\cyro }\IeC {\cyrishrt } \IeC {\cyrl }\IeC {\cyri }\IeC {\cyrt }\IeC {\cyre }\IeC {\cyrr }\IeC {\cyra }\IeC {\cyrt }\IeC {\cyru }\IeC {\cyrr }\IeC {\cyrery }}{10}{chapter*.3}}
